%YAML 1.1
%TAG !u! tag:unity3d.com,2011:
--- !u!13 &1
InputManager:
  m_ObjectHideFlags: 0
  serializedVersion: 2
  m_Axes:
  - serializedVersion: 3
    m_Name: quit
    descriptiveName: 
    descriptiveNegativeName: 
    negativeButton: 
    positiveButton: escape
    altNegativeButton: 
    altPositiveButton: 
    gravity: 1000
    dead: 0.001
    sensitivity: 1000
    snap: 0
    invert: 0
    type: 0
    axis: 0
    joyNum: 0
